-- Merging decision tree log ---
manifest
ADDED from E:\Nfc-Based-Toll-Management-System-master\IC2019\app\src\main\AndroidManifest.xml:2:1-29:12
INJECTED from E:\Nfc-Based-Toll-Management-System-master\IC2019\app\src\main\AndroidManifest.xml:2:1-29:12
INJECTED from E:\Nfc-Based-Toll-Management-System-master\IC2019\app\src\main\AndroidManifest.xml:2:1-29:12
INJECTED from E:\Nfc-Based-Toll-Management-System-master\IC2019\app\src\main\AndroidManifest.xml:2:1-29:12
MERGED from [com.android.support:appcompat-v7:28.0.0] C:\Users\Sachin\.gradle\caches\transforms-1\files-1.1\appcompat-v7-28.0.0.aar\f2a00a8695065ab4052e1f070c90e32e\AndroidManifest.xml:17:1-22:12
MERGED from [com.android.support.constraint:constraint-layout:1.1.3] C:\Users\Sachin\.gradle\caches\transforms-1\files-1.1\constraint-layout-1.1.3.aar\c24ec8dec33715504fa12993bb911473\AndroidManifest.xml:2:1-11:12
MERGED from [com.google.firebase:firebase-database:16.0.1] C:\Users\Sachin\.gradle\caches\transforms-1\files-1.1\firebase-database-16.0.1.aar\8c06dbf04d40f391cfa80da4f534f7bf\AndroidManifest.xml:2:1-8:12
MERGED from [com.android.support:animated-vector-drawable:28.0.0] C:\Users\Sachin\.gradle\caches\transforms-1\files-1.1\animated-vector-drawable-28.0.0.aar\100b4835629cbe739409a3ee8f906d93\AndroidManifest.xml:17:1-22:12
MERGED from [com.android.support:support-vector-drawable:28.0.0] C:\Users\Sachin\.gradle\caches\transforms-1\files-1.1\support-vector-drawable-28.0.0.aar\ca4797bead6fc892a115d8f24b68f54a\AndroidManifest.xml:17:1-22:12
MERGED from [com.google.firebase:firebase-database-connection:16.0.1] C:\Users\Sachin\.gradle\caches\transforms-1\files-1.1\firebase-database-connection-16.0.1.aar\4d61edba9f3706732dcc578ec1666fb8\AndroidManifest.xml:2:1-10:12
MERGED from [com.google.firebase:firebase-common:16.0.0] C:\Users\Sachin\.gradle\caches\transforms-1\files-1.1\firebase-common-16.0.0.aar\6eb20c7596240985cb840392ba4afc17\AndroidManifest.xml:2:1-16:12
MERGED from [com.google.android.gms:play-services-tasks:15.0.1] C:\Users\Sachin\.gradle\caches\transforms-1\files-1.1\play-services-tasks-15.0.1.aar\299c205e6b154418197e66767306fbf2\AndroidManifest.xml:2:1-9:12
MERGED from [com.google.firebase:firebase-database-collection:15.0.1] C:\Users\Sachin\.gradle\caches\transforms-1\files-1.1\firebase-database-collection-15.0.1.aar\d43c5661ba19f3ada7454fbefb541ada\AndroidManifest.xml:2:1-8:12
MERGED from [com.google.android.gms:play-services-basement:15.0.1] C:\Users\Sachin\.gradle\caches\transforms-1\files-1.1\play-services-basement-15.0.1.aar\8500b5dd533ce7cd62e3db6cde047bc8\AndroidManifest.xml:17:1-28:12
MERGED from [com.android.support:support-v4:26.1.0] C:\Users\Sachin\.gradle\caches\transforms-1\files-1.1\support-v4-26.1.0.aar\39d3185fc95a77131408dda2d5901477\AndroidManifest.xml:17:1-31:12
MERGED from [com.android.support:support-media-compat:26.1.0] C:\Users\Sachin\.gradle\caches\transforms-1\files-1.1\support-media-compat-26.1.0.aar\1785c48668cc693fa3d202450cc2b0e9\AndroidManifest.xml:17:1-31:12
MERGED from [com.android.support:support-fragment:28.0.0] C:\Users\Sachin\.gradle\caches\transforms-1\files-1.1\support-fragment-28.0.0.aar\bc9f6550d600aa6b8cca4c13dc4009ba\AndroidManifest.xml:17:1-22:12
MERGED from [com.android.support:support-core-ui:28.0.0] C:\Users\Sachin\.gradle\caches\transforms-1\files-1.1\support-core-ui-28.0.0.aar\551200cb0195078baa73b541c656da78\AndroidManifest.xml:17:1-22:12
MERGED from [com.android.support:support-core-utils:28.0.0] C:\Users\Sachin\.gradle\caches\transforms-1\files-1.1\support-core-utils-28.0.0.aar\3d892aa96624178392ca04f1542647d7\AndroidManifest.xml:17:1-22:12
MERGED from [com.android.support:loader:28.0.0] C:\Users\Sachin\.gradle\caches\transforms-1\files-1.1\loader-28.0.0.aar\34edfbc797efe7e1d4280a1b4987965c\AndroidManifest.xml:17:1-22:12
MERGED from [com.android.support:viewpager:28.0.0] C:\Users\Sachin\.gradle\caches\transforms-1\files-1.1\viewpager-28.0.0.aar\b0857126125d0a00b864ae676ed963e6\AndroidManifest.xml:17:1-22:12
MERGED from [com.android.support:coordinatorlayout:28.0.0] C:\Users\Sachin\.gradle\caches\transforms-1\files-1.1\coordinatorlayout-28.0.0.aar\7a1e4b543969b9ae9338ce04a8657d7a\AndroidManifest.xml:17:1-22:12
MERGED from [com.android.support:drawerlayout:28.0.0] C:\Users\Sachin\.gradle\caches\transforms-1\files-1.1\drawerlayout-28.0.0.aar\6fc976168ce84cb79a161319e5b46b62\AndroidManifest.xml:17:1-22:12
MERGED from [com.android.support:slidingpanelayout:28.0.0] C:\Users\Sachin\.gradle\caches\transforms-1\files-1.1\slidingpanelayout-28.0.0.aar\5123bef3a9d4b51889825b4320b8886c\AndroidManifest.xml:17:1-22:12
MERGED from [com.android.support:customview:28.0.0] C:\Users\Sachin\.gradle\caches\transforms-1\files-1.1\customview-28.0.0.aar\a79c9494fe2bfb700979022e9ffc2637\AndroidManifest.xml:17:1-22:12
MERGED from [com.android.support:swiperefreshlayout:28.0.0] C:\Users\Sachin\.gradle\caches\transforms-1\files-1.1\swiperefreshlayout-28.0.0.aar\0c925c3934a4f26256f4f10e8990a03c\AndroidManifest.xml:17:1-22:12
MERGED from [com.android.support:asynclayoutinflater:28.0.0] C:\Users\Sachin\.gradle\caches\transforms-1\files-1.1\asynclayoutinflater-28.0.0.aar\15abb4bc34e2a6d5092d6493f90841ea\AndroidManifest.xml:17:1-22:12
MERGED from [com.android.support:support-compat:28.0.0] C:\Users\Sachin\.gradle\caches\transforms-1\files-1.1\support-compat-28.0.0.aar\bfaf2ecf78b63ee792cd95e381b395b1\AndroidManifest.xml:17:1-24:12
MERGED from [com.android.support:versionedparcelable:28.0.0] C:\Users\Sachin\.gradle\caches\transforms-1\files-1.1\versionedparcelable-28.0.0.aar\751d1c439cf83fe41fffb68d04f45579\AndroidManifest.xml:17:1-25:12
MERGED from [com.android.support:cursoradapter:28.0.0] C:\Users\Sachin\.gradle\caches\transforms-1\files-1.1\cursoradapter-28.0.0.aar\19e8cfb1328d21ff517aa45fc53ce7ee\AndroidManifest.xml:17:1-22:12
MERGED from [android.arch.lifecycle:runtime:1.1.1] C:\Users\Sachin\.gradle\caches\transforms-1\files-1.1\runtime-1.1.1.aar\cadf13565cbc544b1aeb946baa100e4b\AndroidManifest.xml:17:1-22:12
MERGED from [android.arch.lifecycle:livedata:1.1.1] C:\Users\Sachin\.gradle\caches\transforms-1\files-1.1\livedata-1.1.1.aar\347afaf923c20147c04878a29fad05f7\AndroidManifest.xml:17:1-22:12
MERGED from [android.arch.lifecycle:livedata-core:1.1.1] C:\Users\Sachin\.gradle\caches\transforms-1\files-1.1\livedata-core-1.1.1.aar\4d75eafb6fd7a695a9fdfb20ece55247\AndroidManifest.xml:17:1-22:12
MERGED from [android.arch.core:runtime:1.1.1] C:\Users\Sachin\.gradle\caches\transforms-1\files-1.1\runtime-1.1.1.aar\b2b090f6a1dd4bd4d319d66a92853e63\AndroidManifest.xml:17:1-22:12
MERGED from [com.android.support:documentfile:28.0.0] C:\Users\Sachin\.gradle\caches\transforms-1\files-1.1\documentfile-28.0.0.aar\ea943db3ad3ec5130371e6f439075b2c\AndroidManifest.xml:17:1-22:12
MERGED from [com.android.support:localbroadcastmanager:28.0.0] C:\Users\Sachin\.gradle\caches\transforms-1\files-1.1\localbroadcastmanager-28.0.0.aar\ee8612c007ecf7fd31df6de0ed420a86\AndroidManifest.xml:17:1-22:12
MERGED from [com.android.support:print:28.0.0] C:\Users\Sachin\.gradle\caches\transforms-1\files-1.1\print-28.0.0.aar\8049607ea87b16181b40bd19b23720be\AndroidManifest.xml:17:1-22:12
MERGED from [android.arch.lifecycle:viewmodel:1.1.1] C:\Users\Sachin\.gradle\caches\transforms-1\files-1.1\viewmodel-1.1.1.aar\ea8f242c5abd853621944419363be187\AndroidManifest.xml:17:1-22:12
MERGED from [com.android.support:interpolator:28.0.0] C:\Users\Sachin\.gradle\caches\transforms-1\files-1.1\interpolator-28.0.0.aar\f89237517a813251837a842e53b9afd6\AndroidManifest.xml:17:1-22:12
INJECTED from E:\Nfc-Based-Toll-Management-System-master\IC2019\app\src\main\AndroidManifest.xml:2:1-29:12
INJECTED from E:\Nfc-Based-Toll-Management-System-master\IC2019\app\src\main\AndroidManifest.xml:2:1-29:12
INJECTED from E:\Nfc-Based-Toll-Management-System-master\IC2019\app\src\main\AndroidManifest.xml:2:1-29:12
	package
		ADDED from E:\Nfc-Based-Toll-Management-System-master\IC2019\app\src\main\AndroidManifest.xml:3:5-43
		INJECTED from E:\Nfc-Based-Toll-Management-System-master\IC2019\app\src\main\AndroidManifest.xml
		INJECTED from E:\Nfc-Based-Toll-Management-System-master\IC2019\app\src\main\AndroidManifest.xml
	android:versionName
		INJECTED from E:\Nfc-Based-Toll-Management-System-master\IC2019\app\src\main\AndroidManifest.xml
		ADDED from E:\Nfc-Based-Toll-Management-System-master\IC2019\app\src\main\AndroidManifest.xml:2:1-29:12
		INJECTED from E:\Nfc-Based-Toll-Management-System-master\IC2019\app\src\main\AndroidManifest.xml
	android:versionCode
		INJECTED from E:\Nfc-Based-Toll-Management-System-master\IC2019\app\src\main\AndroidManifest.xml
		ADDED from E:\Nfc-Based-Toll-Management-System-master\IC2019\app\src\main\AndroidManifest.xml:2:1-29:12
		INJECTED from E:\Nfc-Based-Toll-Management-System-master\IC2019\app\src\main\AndroidManifest.xml
	xmlns:android
		ADDED from E:\Nfc-Based-Toll-Management-System-master\IC2019\app\src\main\AndroidManifest.xml:2:11-69
uses-permission#android.permission.INTERNET
ADDED from E:\Nfc-Based-Toll-Management-System-master\IC2019\app\src\main\AndroidManifest.xml:5:5-67
MERGED from [com.google.firebase:firebase-database-connection:16.0.1] C:\Users\Sachin\.gradle\caches\transforms-1\files-1.1\firebase-database-connection-16.0.1.aar\4d61edba9f3706732dcc578ec1666fb8\AndroidManifest.xml:8:5-67
MERGED from [com.google.firebase:firebase-database-connection:16.0.1] C:\Users\Sachin\.gradle\caches\transforms-1\files-1.1\firebase-database-connection-16.0.1.aar\4d61edba9f3706732dcc578ec1666fb8\AndroidManifest.xml:8:5-67
	android:name
		ADDED from E:\Nfc-Based-Toll-Management-System-master\IC2019\app\src\main\AndroidManifest.xml:5:22-64
uses-permission#android.permission.ACCESS_NETWORK_STATE
ADDED from E:\Nfc-Based-Toll-Management-System-master\IC2019\app\src\main\AndroidManifest.xml:6:5-79
	android:name
		ADDED from E:\Nfc-Based-Toll-Management-System-master\IC2019\app\src\main\AndroidManifest.xml:6:22-76
application
ADDED from E:\Nfc-Based-Toll-Management-System-master\IC2019\app\src\main\AndroidManifest.xml:8:5-27:19
MERGED from [com.android.support.constraint:constraint-layout:1.1.3] C:\Users\Sachin\.gradle\caches\transforms-1\files-1.1\constraint-layout-1.1.3.aar\c24ec8dec33715504fa12993bb911473\AndroidManifest.xml:9:5-20
MERGED from [com.android.support.constraint:constraint-layout:1.1.3] C:\Users\Sachin\.gradle\caches\transforms-1\files-1.1\constraint-layout-1.1.3.aar\c24ec8dec33715504fa12993bb911473\AndroidManifest.xml:9:5-20
MERGED from [com.google.firebase:firebase-common:16.0.0] C:\Users\Sachin\.gradle\caches\transforms-1\files-1.1\firebase-common-16.0.0.aar\6eb20c7596240985cb840392ba4afc17\AndroidManifest.xml:8:5-14:19
MERGED from [com.google.firebase:firebase-common:16.0.0] C:\Users\Sachin\.gradle\caches\transforms-1\files-1.1\firebase-common-16.0.0.aar\6eb20c7596240985cb840392ba4afc17\AndroidManifest.xml:8:5-14:19
MERGED from [com.google.android.gms:play-services-tasks:15.0.1] C:\Users\Sachin\.gradle\caches\transforms-1\files-1.1\play-services-tasks-15.0.1.aar\299c205e6b154418197e66767306fbf2\AndroidManifest.xml:7:5-20
MERGED from [com.google.android.gms:play-services-tasks:15.0.1] C:\Users\Sachin\.gradle\caches\transforms-1\files-1.1\play-services-tasks-15.0.1.aar\299c205e6b154418197e66767306fbf2\AndroidManifest.xml:7:5-20
MERGED from [com.google.android.gms:play-services-basement:15.0.1] C:\Users\Sachin\.gradle\caches\transforms-1\files-1.1\play-services-basement-15.0.1.aar\8500b5dd533ce7cd62e3db6cde047bc8\AndroidManifest.xml:22:5-26:19
MERGED from [com.google.android.gms:play-services-basement:15.0.1] C:\Users\Sachin\.gradle\caches\transforms-1\files-1.1\play-services-basement-15.0.1.aar\8500b5dd533ce7cd62e3db6cde047bc8\AndroidManifest.xml:22:5-26:19
MERGED from [com.android.support:support-v4:26.1.0] C:\Users\Sachin\.gradle\caches\transforms-1\files-1.1\support-v4-26.1.0.aar\39d3185fc95a77131408dda2d5901477\AndroidManifest.xml:25:5-29:19
MERGED from [com.android.support:support-v4:26.1.0] C:\Users\Sachin\.gradle\caches\transforms-1\files-1.1\support-v4-26.1.0.aar\39d3185fc95a77131408dda2d5901477\AndroidManifest.xml:25:5-29:19
MERGED from [com.android.support:support-media-compat:26.1.0] C:\Users\Sachin\.gradle\caches\transforms-1\files-1.1\support-media-compat-26.1.0.aar\1785c48668cc693fa3d202450cc2b0e9\AndroidManifest.xml:25:5-29:19
MERGED from [com.android.support:support-media-compat:26.1.0] C:\Users\Sachin\.gradle\caches\transforms-1\files-1.1\support-media-compat-26.1.0.aar\1785c48668cc693fa3d202450cc2b0e9\AndroidManifest.xml:25:5-29:19
MERGED from [com.android.support:support-compat:28.0.0] C:\Users\Sachin\.gradle\caches\transforms-1\files-1.1\support-compat-28.0.0.aar\bfaf2ecf78b63ee792cd95e381b395b1\AndroidManifest.xml:22:5-94
MERGED from [com.android.support:support-compat:28.0.0] C:\Users\Sachin\.gradle\caches\transforms-1\files-1.1\support-compat-28.0.0.aar\bfaf2ecf78b63ee792cd95e381b395b1\AndroidManifest.xml:22:5-94
MERGED from [com.android.support:versionedparcelable:28.0.0] C:\Users\Sachin\.gradle\caches\transforms-1\files-1.1\versionedparcelable-28.0.0.aar\751d1c439cf83fe41fffb68d04f45579\AndroidManifest.xml:22:5-23:19
MERGED from [com.android.support:versionedparcelable:28.0.0] C:\Users\Sachin\.gradle\caches\transforms-1\files-1.1\versionedparcelable-28.0.0.aar\751d1c439cf83fe41fffb68d04f45579\AndroidManifest.xml:22:5-23:19
	android:appComponentFactory
		ADDED from [com.android.support:support-compat:28.0.0] C:\Users\Sachin\.gradle\caches\transforms-1\files-1.1\support-compat-28.0.0.aar\bfaf2ecf78b63ee792cd95e381b395b1\AndroidManifest.xml:22:18-91
	android:supportsRtl
		ADDED from E:\Nfc-Based-Toll-Management-System-master\IC2019\app\src\main\AndroidManifest.xml:13:9-35
	android:label
		ADDED from E:\Nfc-Based-Toll-Management-System-master\IC2019\app\src\main\AndroidManifest.xml:11:9-41
	android:roundIcon
		ADDED from E:\Nfc-Based-Toll-Management-System-master\IC2019\app\src\main\AndroidManifest.xml:12:9-57
	android:icon
		ADDED from E:\Nfc-Based-Toll-Management-System-master\IC2019\app\src\main\AndroidManifest.xml:10:9-47
	android:allowBackup
		ADDED from E:\Nfc-Based-Toll-Management-System-master\IC2019\app\src\main\AndroidManifest.xml:9:9-35
	android:theme
		ADDED from E:\Nfc-Based-Toll-Management-System-master\IC2019\app\src\main\AndroidManifest.xml:14:9-40
activity#com.technology.ajmprs.ic2019.MainActivity
ADDED from E:\Nfc-Based-Toll-Management-System-master\IC2019\app\src\main\AndroidManifest.xml:15:9-21:20
	android:name
		ADDED from E:\Nfc-Based-Toll-Management-System-master\IC2019\app\src\main\AndroidManifest.xml:15:19-47
intent-filter#action:name:android.intent.action.MAIN+category:name:android.intent.category.LAUNCHER
ADDED from E:\Nfc-Based-Toll-Management-System-master\IC2019\app\src\main\AndroidManifest.xml:16:13-20:29
action#android.intent.action.MAIN
ADDED from E:\Nfc-Based-Toll-Management-System-master\IC2019\app\src\main\AndroidManifest.xml:17:17-69
	android:name
		ADDED from E:\Nfc-Based-Toll-Management-System-master\IC2019\app\src\main\AndroidManifest.xml:17:25-66
category#android.intent.category.LAUNCHER
ADDED from E:\Nfc-Based-Toll-Management-System-master\IC2019\app\src\main\AndroidManifest.xml:19:17-77
	android:name
		ADDED from E:\Nfc-Based-Toll-Management-System-master\IC2019\app\src\main\AndroidManifest.xml:19:27-74
activity#com.technology.ajmprs.ic2019.Details
ADDED from E:\Nfc-Based-Toll-Management-System-master\IC2019\app\src\main\AndroidManifest.xml:22:9-45
	android:name
		ADDED from E:\Nfc-Based-Toll-Management-System-master\IC2019\app\src\main\AndroidManifest.xml:22:19-42
activity#com.technology.ajmprs.ic2019.Registration
ADDED from E:\Nfc-Based-Toll-Management-System-master\IC2019\app\src\main\AndroidManifest.xml:23:9-50
	android:name
		ADDED from E:\Nfc-Based-Toll-Management-System-master\IC2019\app\src\main\AndroidManifest.xml:23:19-47
activity#com.technology.ajmprs.ic2019.Popup
ADDED from E:\Nfc-Based-Toll-Management-System-master\IC2019\app\src\main\AndroidManifest.xml:24:9-43
	android:name
		ADDED from E:\Nfc-Based-Toll-Management-System-master\IC2019\app\src\main\AndroidManifest.xml:24:19-40
activity#com.technology.ajmprs.ic2019.UPI
ADDED from E:\Nfc-Based-Toll-Management-System-master\IC2019\app\src\main\AndroidManifest.xml:25:9-41
	android:name
		ADDED from E:\Nfc-Based-Toll-Management-System-master\IC2019\app\src\main\AndroidManifest.xml:25:19-38
activity#com.technology.ajmprs.ic2019.Thankyou
ADDED from E:\Nfc-Based-Toll-Management-System-master\IC2019\app\src\main\AndroidManifest.xml:26:9-55
	android:name
		ADDED from E:\Nfc-Based-Toll-Management-System-master\IC2019\app\src\main\AndroidManifest.xml:26:19-43
uses-sdk
INJECTED from E:\Nfc-Based-Toll-Management-System-master\IC2019\app\src\main\AndroidManifest.xml reason: use-sdk injection requested
INJECTED from E:\Nfc-Based-Toll-Management-System-master\IC2019\app\src\main\AndroidManifest.xml
INJECTED from E:\Nfc-Based-Toll-Management-System-master\IC2019\app\src\main\AndroidManifest.xml
MERGED from [com.android.support:appcompat-v7:28.0.0] C:\Users\Sachin\.gradle\caches\transforms-1\files-1.1\appcompat-v7-28.0.0.aar\f2a00a8695065ab4052e1f070c90e32e\AndroidManifest.xml:20:5-44
MERGED from [com.android.support:appcompat-v7:28.0.0] C:\Users\Sachin\.gradle\caches\transforms-1\files-1.1\appcompat-v7-28.0.0.aar\f2a00a8695065ab4052e1f070c90e32e\AndroidManifest.xml:20:5-44
MERGED from [com.android.support.constraint:constraint-layout:1.1.3] C:\Users\Sachin\.gradle\caches\transforms-1\files-1.1\constraint-layout-1.1.3.aar\c24ec8dec33715504fa12993bb911473\AndroidManifest.xml:5:5-7:41
MERGED from [com.android.support.constraint:constraint-layout:1.1.3] C:\Users\Sachin\.gradle\caches\transforms-1\files-1.1\constraint-layout-1.1.3.aar\c24ec8dec33715504fa12993bb911473\AndroidManifest.xml:5:5-7:41
MERGED from [com.google.firebase:firebase-database:16.0.1] C:\Users\Sachin\.gradle\caches\transforms-1\files-1.1\firebase-database-16.0.1.aar\8c06dbf04d40f391cfa80da4f534f7bf\AndroidManifest.xml:6:5-44
MERGED from [com.google.firebase:firebase-database:16.0.1] C:\Users\Sachin\.gradle\caches\transforms-1\files-1.1\firebase-database-16.0.1.aar\8c06dbf04d40f391cfa80da4f534f7bf\AndroidManifest.xml:6:5-44
MERGED from [com.android.support:animated-vector-drawable:28.0.0] C:\Users\Sachin\.gradle\caches\transforms-1\files-1.1\animated-vector-drawable-28.0.0.aar\100b4835629cbe739409a3ee8f906d93\AndroidManifest.xml:20:5-44
MERGED from [com.android.support:animated-vector-drawable:28.0.0] C:\Users\Sachin\.gradle\caches\transforms-1\files-1.1\animated-vector-drawable-28.0.0.aar\100b4835629cbe739409a3ee8f906d93\AndroidManifest.xml:20:5-44
MERGED from [com.android.support:support-vector-drawable:28.0.0] C:\Users\Sachin\.gradle\caches\transforms-1\files-1.1\support-vector-drawable-28.0.0.aar\ca4797bead6fc892a115d8f24b68f54a\AndroidManifest.xml:20:5-44
MERGED from [com.android.support:support-vector-drawable:28.0.0] C:\Users\Sachin\.gradle\caches\transforms-1\files-1.1\support-vector-drawable-28.0.0.aar\ca4797bead6fc892a115d8f24b68f54a\AndroidManifest.xml:20:5-44
MERGED from [com.google.firebase:firebase-database-connection:16.0.1] C:\Users\Sachin\.gradle\caches\transforms-1\files-1.1\firebase-database-connection-16.0.1.aar\4d61edba9f3706732dcc578ec1666fb8\AndroidManifest.xml:6:5-44
MERGED from [com.google.firebase:firebase-database-connection:16.0.1] C:\Users\Sachin\.gradle\caches\transforms-1\files-1.1\firebase-database-connection-16.0.1.aar\4d61edba9f3706732dcc578ec1666fb8\AndroidManifest.xml:6:5-44
MERGED from [com.google.firebase:firebase-common:16.0.0] C:\Users\Sachin\.gradle\caches\transforms-1\files-1.1\firebase-common-16.0.0.aar\6eb20c7596240985cb840392ba4afc17\AndroidManifest.xml:5:5-6:37
MERGED from [com.google.firebase:firebase-common:16.0.0] C:\Users\Sachin\.gradle\caches\transforms-1\files-1.1\firebase-common-16.0.0.aar\6eb20c7596240985cb840392ba4afc17\AndroidManifest.xml:5:5-6:37
MERGED from [com.google.android.gms:play-services-tasks:15.0.1] C:\Users\Sachin\.gradle\caches\transforms-1\files-1.1\play-services-tasks-15.0.1.aar\299c205e6b154418197e66767306fbf2\AndroidManifest.xml:5:5-44
MERGED from [com.google.android.gms:play-services-tasks:15.0.1] C:\Users\Sachin\.gradle\caches\transforms-1\files-1.1\play-services-tasks-15.0.1.aar\299c205e6b154418197e66767306fbf2\AndroidManifest.xml:5:5-44
MERGED from [com.google.firebase:firebase-database-collection:15.0.1] C:\Users\Sachin\.gradle\caches\transforms-1\files-1.1\firebase-database-collection-15.0.1.aar\d43c5661ba19f3ada7454fbefb541ada\AndroidManifest.xml:6:5-44
MERGED from [com.google.firebase:firebase-database-collection:15.0.1] C:\Users\Sachin\.gradle\caches\transforms-1\files-1.1\firebase-database-collection-15.0.1.aar\d43c5661ba19f3ada7454fbefb541ada\AndroidManifest.xml:6:5-44
MERGED from [com.google.android.gms:play-services-basement:15.0.1] C:\Users\Sachin\.gradle\caches\transforms-1\files-1.1\play-services-basement-15.0.1.aar\8500b5dd533ce7cd62e3db6cde047bc8\AndroidManifest.xml:20:5-44
MERGED from [com.google.android.gms:play-services-basement:15.0.1] C:\Users\Sachin\.gradle\caches\transforms-1\files-1.1\play-services-basement-15.0.1.aar\8500b5dd533ce7cd62e3db6cde047bc8\AndroidManifest.xml:20:5-44
MERGED from [com.android.support:support-v4:26.1.0] C:\Users\Sachin\.gradle\caches\transforms-1\files-1.1\support-v4-26.1.0.aar\39d3185fc95a77131408dda2d5901477\AndroidManifest.xml:21:5-23:54
MERGED from [com.android.support:support-v4:26.1.0] C:\Users\Sachin\.gradle\caches\transforms-1\files-1.1\support-v4-26.1.0.aar\39d3185fc95a77131408dda2d5901477\AndroidManifest.xml:21:5-23:54
MERGED from [com.android.support:support-media-compat:26.1.0] C:\Users\Sachin\.gradle\caches\transforms-1\files-1.1\support-media-compat-26.1.0.aar\1785c48668cc693fa3d202450cc2b0e9\AndroidManifest.xml:21:5-23:63
MERGED from [com.android.support:support-media-compat:26.1.0] C:\Users\Sachin\.gradle\caches\transforms-1\files-1.1\support-media-compat-26.1.0.aar\1785c48668cc693fa3d202450cc2b0e9\AndroidManifest.xml:21:5-23:63
MERGED from [com.android.support:support-fragment:28.0.0] C:\Users\Sachin\.gradle\caches\transforms-1\files-1.1\support-fragment-28.0.0.aar\bc9f6550d600aa6b8cca4c13dc4009ba\AndroidManifest.xml:20:5-44
MERGED from [com.android.support:support-fragment:28.0.0] C:\Users\Sachin\.gradle\caches\transforms-1\files-1.1\support-fragment-28.0.0.aar\bc9f6550d600aa6b8cca4c13dc4009ba\AndroidManifest.xml:20:5-44
MERGED from [com.android.support:support-core-ui:28.0.0] C:\Users\Sachin\.gradle\caches\transforms-1\files-1.1\support-core-ui-28.0.0.aar\551200cb0195078baa73b541c656da78\AndroidManifest.xml:20:5-44
MERGED from [com.android.support:support-core-ui:28.0.0] C:\Users\Sachin\.gradle\caches\transforms-1\files-1.1\support-core-ui-28.0.0.aar\551200cb0195078baa73b541c656da78\AndroidManifest.xml:20:5-44
MERGED from [com.android.support:support-core-utils:28.0.0] C:\Users\Sachin\.gradle\caches\transforms-1\files-1.1\support-core-utils-28.0.0.aar\3d892aa96624178392ca04f1542647d7\AndroidManifest.xml:20:5-44
MERGED from [com.android.support:support-core-utils:28.0.0] C:\Users\Sachin\.gradle\caches\transforms-1\files-1.1\support-core-utils-28.0.0.aar\3d892aa96624178392ca04f1542647d7\AndroidManifest.xml:20:5-44
MERGED from [com.android.support:loader:28.0.0] C:\Users\Sachin\.gradle\caches\transforms-1\files-1.1\loader-28.0.0.aar\34edfbc797efe7e1d4280a1b4987965c\AndroidManifest.xml:20:5-44
MERGED from [com.android.support:loader:28.0.0] C:\Users\Sachin\.gradle\caches\transforms-1\files-1.1\loader-28.0.0.aar\34edfbc797efe7e1d4280a1b4987965c\AndroidManifest.xml:20:5-44
MERGED from [com.android.support:viewpager:28.0.0] C:\Users\Sachin\.gradle\caches\transforms-1\files-1.1\viewpager-28.0.0.aar\b0857126125d0a00b864ae676ed963e6\AndroidManifest.xml:20:5-44
MERGED from [com.android.support:viewpager:28.0.0] C:\Users\Sachin\.gradle\caches\transforms-1\files-1.1\viewpager-28.0.0.aar\b0857126125d0a00b864ae676ed963e6\AndroidManifest.xml:20:5-44
MERGED from [com.android.support:coordinatorlayout:28.0.0] C:\Users\Sachin\.gradle\caches\transforms-1\files-1.1\coordinatorlayout-28.0.0.aar\7a1e4b543969b9ae9338ce04a8657d7a\AndroidManifest.xml:20:5-44
MERGED from [com.android.support:coordinatorlayout:28.0.0] C:\Users\Sachin\.gradle\caches\transforms-1\files-1.1\coordinatorlayout-28.0.0.aar\7a1e4b543969b9ae9338ce04a8657d7a\AndroidManifest.xml:20:5-44
MERGED from [com.android.support:drawerlayout:28.0.0] C:\Users\Sachin\.gradle\caches\transforms-1\files-1.1\drawerlayout-28.0.0.aar\6fc976168ce84cb79a161319e5b46b62\AndroidManifest.xml:20:5-44
MERGED from [com.android.support:drawerlayout:28.0.0] C:\Users\Sachin\.gradle\caches\transforms-1\files-1.1\drawerlayout-28.0.0.aar\6fc976168ce84cb79a161319e5b46b62\AndroidManifest.xml:20:5-44
MERGED from [com.android.support:slidingpanelayout:28.0.0] C:\Users\Sachin\.gradle\caches\transforms-1\files-1.1\slidingpanelayout-28.0.0.aar\5123bef3a9d4b51889825b4320b8886c\AndroidManifest.xml:20:5-44
MERGED from [com.android.support:slidingpanelayout:28.0.0] C:\Users\Sachin\.gradle\caches\transforms-1\files-1.1\slidingpanelayout-28.0.0.aar\5123bef3a9d4b51889825b4320b8886c\AndroidManifest.xml:20:5-44
MERGED from [com.android.support:customview:28.0.0] C:\Users\Sachin\.gradle\caches\transforms-1\files-1.1\customview-28.0.0.aar\a79c9494fe2bfb700979022e9ffc2637\AndroidManifest.xml:20:5-44
MERGED from [com.android.support:customview:28.0.0] C:\Users\Sachin\.gradle\caches\transforms-1\files-1.1\customview-28.0.0.aar\a79c9494fe2bfb700979022e9ffc2637\AndroidManifest.xml:20:5-44
MERGED from [com.android.support:swiperefreshlayout:28.0.0] C:\Users\Sachin\.gradle\caches\transforms-1\files-1.1\swiperefreshlayout-28.0.0.aar\0c925c3934a4f26256f4f10e8990a03c\AndroidManifest.xml:20:5-44
MERGED from [com.android.support:swiperefreshlayout:28.0.0] C:\Users\Sachin\.gradle\caches\transforms-1\files-1.1\swiperefreshlayout-28.0.0.aar\0c925c3934a4f26256f4f10e8990a03c\AndroidManifest.xml:20:5-44
MERGED from [com.android.support:asynclayoutinflater:28.0.0] C:\Users\Sachin\.gradle\caches\transforms-1\files-1.1\asynclayoutinflater-28.0.0.aar\15abb4bc34e2a6d5092d6493f90841ea\AndroidManifest.xml:20:5-44
MERGED from [com.android.support:asynclayoutinflater:28.0.0] C:\Users\Sachin\.gradle\caches\transforms-1\files-1.1\asynclayoutinflater-28.0.0.aar\15abb4bc34e2a6d5092d6493f90841ea\AndroidManifest.xml:20:5-44
MERGED from [com.android.support:support-compat:28.0.0] C:\Users\Sachin\.gradle\caches\transforms-1\files-1.1\support-compat-28.0.0.aar\bfaf2ecf78b63ee792cd95e381b395b1\AndroidManifest.xml:20:5-44
MERGED from [com.android.support:support-compat:28.0.0] C:\Users\Sachin\.gradle\caches\transforms-1\files-1.1\support-compat-28.0.0.aar\bfaf2ecf78b63ee792cd95e381b395b1\AndroidManifest.xml:20:5-44
MERGED from [com.android.support:versionedparcelable:28.0.0] C:\Users\Sachin\.gradle\caches\transforms-1\files-1.1\versionedparcelable-28.0.0.aar\751d1c439cf83fe41fffb68d04f45579\AndroidManifest.xml:20:5-44
MERGED from [com.android.support:versionedparcelable:28.0.0] C:\Users\Sachin\.gradle\caches\transforms-1\files-1.1\versionedparcelable-28.0.0.aar\751d1c439cf83fe41fffb68d04f45579\AndroidManifest.xml:20:5-44
MERGED from [com.android.support:cursoradapter:28.0.0] C:\Users\Sachin\.gradle\caches\transforms-1\files-1.1\cursoradapter-28.0.0.aar\19e8cfb1328d21ff517aa45fc53ce7ee\AndroidManifest.xml:20:5-44
MERGED from [com.android.support:cursoradapter:28.0.0] C:\Users\Sachin\.gradle\caches\transforms-1\files-1.1\cursoradapter-28.0.0.aar\19e8cfb1328d21ff517aa45fc53ce7ee\AndroidManifest.xml:20:5-44
MERGED from [android.arch.lifecycle:runtime:1.1.1] C:\Users\Sachin\.gradle\caches\transforms-1\files-1.1\runtime-1.1.1.aar\cadf13565cbc544b1aeb946baa100e4b\AndroidManifest.xml:20:5-44
MERGED from [android.arch.lifecycle:runtime:1.1.1] C:\Users\Sachin\.gradle\caches\transforms-1\files-1.1\runtime-1.1.1.aar\cadf13565cbc544b1aeb946baa100e4b\AndroidManifest.xml:20:5-44
MERGED from [android.arch.lifecycle:livedata:1.1.1] C:\Users\Sachin\.gradle\caches\transforms-1\files-1.1\livedata-1.1.1.aar\347afaf923c20147c04878a29fad05f7\AndroidManifest.xml:20:5-44
MERGED from [android.arch.lifecycle:livedata:1.1.1] C:\Users\Sachin\.gradle\caches\transforms-1\files-1.1\livedata-1.1.1.aar\347afaf923c20147c04878a29fad05f7\AndroidManifest.xml:20:5-44
MERGED from [android.arch.lifecycle:livedata-core:1.1.1] C:\Users\Sachin\.gradle\caches\transforms-1\files-1.1\livedata-core-1.1.1.aar\4d75eafb6fd7a695a9fdfb20ece55247\AndroidManifest.xml:20:5-44
MERGED from [android.arch.lifecycle:livedata-core:1.1.1] C:\Users\Sachin\.gradle\caches\transforms-1\files-1.1\livedata-core-1.1.1.aar\4d75eafb6fd7a695a9fdfb20ece55247\AndroidManifest.xml:20:5-44
MERGED from [android.arch.core:runtime:1.1.1] C:\Users\Sachin\.gradle\caches\transforms-1\files-1.1\runtime-1.1.1.aar\b2b090f6a1dd4bd4d319d66a92853e63\AndroidManifest.xml:20:5-44
MERGED from [android.arch.core:runtime:1.1.1] C:\Users\Sachin\.gradle\caches\transforms-1\files-1.1\runtime-1.1.1.aar\b2b090f6a1dd4bd4d319d66a92853e63\AndroidManifest.xml:20:5-44
MERGED from [com.android.support:documentfile:28.0.0] C:\Users\Sachin\.gradle\caches\transforms-1\files-1.1\documentfile-28.0.0.aar\ea943db3ad3ec5130371e6f439075b2c\AndroidManifest.xml:20:5-44
MERGED from [com.android.support:documentfile:28.0.0] C:\Users\Sachin\.gradle\caches\transforms-1\files-1.1\documentfile-28.0.0.aar\ea943db3ad3ec5130371e6f439075b2c\AndroidManifest.xml:20:5-44
MERGED from [com.android.support:localbroadcastmanager:28.0.0] C:\Users\Sachin\.gradle\caches\transforms-1\files-1.1\localbroadcastmanager-28.0.0.aar\ee8612c007ecf7fd31df6de0ed420a86\AndroidManifest.xml:20:5-44
MERGED from [com.android.support:localbroadcastmanager:28.0.0] C:\Users\Sachin\.gradle\caches\transforms-1\files-1.1\localbroadcastmanager-28.0.0.aar\ee8612c007ecf7fd31df6de0ed420a86\AndroidManifest.xml:20:5-44
MERGED from [com.android.support:print:28.0.0] C:\Users\Sachin\.gradle\caches\transforms-1\files-1.1\print-28.0.0.aar\8049607ea87b16181b40bd19b23720be\AndroidManifest.xml:20:5-44
MERGED from [com.android.support:print:28.0.0] C:\Users\Sachin\.gradle\caches\transforms-1\files-1.1\print-28.0.0.aar\8049607ea87b16181b40bd19b23720be\AndroidManifest.xml:20:5-44
MERGED from [android.arch.lifecycle:viewmodel:1.1.1] C:\Users\Sachin\.gradle\caches\transforms-1\files-1.1\viewmodel-1.1.1.aar\ea8f242c5abd853621944419363be187\AndroidManifest.xml:20:5-44
MERGED from [android.arch.lifecycle:viewmodel:1.1.1] C:\Users\Sachin\.gradle\caches\transforms-1\files-1.1\viewmodel-1.1.1.aar\ea8f242c5abd853621944419363be187\AndroidManifest.xml:20:5-44
MERGED from [com.android.support:interpolator:28.0.0] C:\Users\Sachin\.gradle\caches\transforms-1\files-1.1\interpolator-28.0.0.aar\f89237517a813251837a842e53b9afd6\AndroidManifest.xml:20:5-44
MERGED from [com.android.support:interpolator:28.0.0] C:\Users\Sachin\.gradle\caches\transforms-1\files-1.1\interpolator-28.0.0.aar\f89237517a813251837a842e53b9afd6\AndroidManifest.xml:20:5-44
INJECTED from E:\Nfc-Based-Toll-Management-System-master\IC2019\app\src\main\AndroidManifest.xml
INJECTED from E:\Nfc-Based-Toll-Management-System-master\IC2019\app\src\main\AndroidManifest.xml
	tools:overrideLibrary
		ADDED from [com.android.support:support-v4:26.1.0] C:\Users\Sachin\.gradle\caches\transforms-1\files-1.1\support-v4-26.1.0.aar\39d3185fc95a77131408dda2d5901477\AndroidManifest.xml:23:9-51
	android:targetSdkVersion
		INJECTED from E:\Nfc-Based-Toll-Management-System-master\IC2019\app\src\main\AndroidManifest.xml
		ADDED from E:\Nfc-Based-Toll-Management-System-master\IC2019\app\src\main\AndroidManifest.xml
		INJECTED from E:\Nfc-Based-Toll-Management-System-master\IC2019\app\src\main\AndroidManifest.xml
	android:minSdkVersion
		INJECTED from E:\Nfc-Based-Toll-Management-System-master\IC2019\app\src\main\AndroidManifest.xml
		ADDED from E:\Nfc-Based-Toll-Management-System-master\IC2019\app\src\main\AndroidManifest.xml
		INJECTED from E:\Nfc-Based-Toll-Management-System-master\IC2019\app\src\main\AndroidManifest.xml
provider#com.google.firebase.provider.FirebaseInitProvider
ADDED from [com.google.firebase:firebase-common:16.0.0] C:\Users\Sachin\.gradle\caches\transforms-1\files-1.1\firebase-common-16.0.0.aar\6eb20c7596240985cb840392ba4afc17\AndroidManifest.xml:9:9-13:39
	android:authorities
		ADDED from [com.google.firebase:firebase-common:16.0.0] C:\Users\Sachin\.gradle\caches\transforms-1\files-1.1\firebase-common-16.0.0.aar\6eb20c7596240985cb840392ba4afc17\AndroidManifest.xml:11:13-72
	android:exported
		ADDED from [com.google.firebase:firebase-common:16.0.0] C:\Users\Sachin\.gradle\caches\transforms-1\files-1.1\firebase-common-16.0.0.aar\6eb20c7596240985cb840392ba4afc17\AndroidManifest.xml:12:13-37
	android:initOrder
		ADDED from [com.google.firebase:firebase-common:16.0.0] C:\Users\Sachin\.gradle\caches\transforms-1\files-1.1\firebase-common-16.0.0.aar\6eb20c7596240985cb840392ba4afc17\AndroidManifest.xml:13:13-36
	android:name
		ADDED from [com.google.firebase:firebase-common:16.0.0] C:\Users\Sachin\.gradle\caches\transforms-1\files-1.1\firebase-common-16.0.0.aar\6eb20c7596240985cb840392ba4afc17\AndroidManifest.xml:10:13-77
meta-data#com.google.android.gms.version
ADDED from [com.google.android.gms:play-services-basement:15.0.1] C:\Users\Sachin\.gradle\caches\transforms-1\files-1.1\play-services-basement-15.0.1.aar\8500b5dd533ce7cd62e3db6cde047bc8\AndroidManifest.xml:23:9-25:69
	android:value
		ADDED from [com.google.android.gms:play-services-basement:15.0.1] C:\Users\Sachin\.gradle\caches\transforms-1\files-1.1\play-services-basement-15.0.1.aar\8500b5dd533ce7cd62e3db6cde047bc8\AndroidManifest.xml:25:13-66
	android:name
		ADDED from [com.google.android.gms:play-services-basement:15.0.1] C:\Users\Sachin\.gradle\caches\transforms-1\files-1.1\play-services-basement-15.0.1.aar\8500b5dd533ce7cd62e3db6cde047bc8\AndroidManifest.xml:24:13-58
meta-data#android.support.VERSION
ADDED from [com.android.support:support-v4:26.1.0] C:\Users\Sachin\.gradle\caches\transforms-1\files-1.1\support-v4-26.1.0.aar\39d3185fc95a77131408dda2d5901477\AndroidManifest.xml:26:9-28:38
MERGED from [com.android.support:support-media-compat:26.1.0] C:\Users\Sachin\.gradle\caches\transforms-1\files-1.1\support-media-compat-26.1.0.aar\1785c48668cc693fa3d202450cc2b0e9\AndroidManifest.xml:26:9-28:38
MERGED from [com.android.support:support-media-compat:26.1.0] C:\Users\Sachin\.gradle\caches\transforms-1\files-1.1\support-media-compat-26.1.0.aar\1785c48668cc693fa3d202450cc2b0e9\AndroidManifest.xml:26:9-28:38
	android:value
		ADDED from [com.android.support:support-v4:26.1.0] C:\Users\Sachin\.gradle\caches\transforms-1\files-1.1\support-v4-26.1.0.aar\39d3185fc95a77131408dda2d5901477\AndroidManifest.xml:28:13-35
	android:name
		ADDED from [com.android.support:support-v4:26.1.0] C:\Users\Sachin\.gradle\caches\transforms-1\files-1.1\support-v4-26.1.0.aar\39d3185fc95a77131408dda2d5901477\AndroidManifest.xml:27:13-51
